…
**4. What taxa are represented in the `homerange` data frame? Make a new data frame `taxa` that is restricted to taxon, common name, class, order, family, genus, species.**  

```r
taxa <- select(homerange, taxon, common_name, order, family, genus, species)
taxa
```

```
## # A tibble: 569 x 6
##    taxon       common_name          order        family      genus     species  
##    <fct>       <chr>                <fct>        <chr>       <chr>     <chr>    
##  1 lake fishes american eel         anguillifor… anguillidae anguilla  rostrata 
##  2 river fish… blacktail redhorse   cypriniform… catostomid… moxostoma poecilura
##  3 river fish… central stoneroller  cypriniform… cyprinidae  camposto… anomalum 
##  4 river fish… rosyside dace        cypriniform… cyprinidae  clinosto… funduloi…
##  5 river fish… longnose dace        cypriniform… cyprinidae  rhinicht… cataract…
##  6 river fish… muskellunge          esociformes  esocidae    esox      masquino…
##  7 marine fis… pollack              gadiformes   gadidae     pollachi… pollachi…
##  8 marine fis… saithe               gadiformes   gadidae     pollachi… virens   
##  9 marine fis… lined surgeonfish    perciformes  acanthurid… acanthur… lineatus 
## 10 marine fis… orangespine unicorn… perciformes  acanthurid… naso      lituratus
## # … with 559 more rows
```
…
```
## 
## carnivore herbivore 
##       342       227
```

**7. Make two new data frames, one which is restricted to carnivores and another that is restricted to herbivores.**  

```r
carnivores <- data_frame(filter(homerange, trophic_guild == "carnivore"))
carnivores
```

```
## # A tibble: 342 x 24
##    taxon common_name class order family genus species primary_method N    
##    <fct> <chr>       <chr> <fct> <chr>  <chr> <chr>   <chr>          <chr>
##  1 lake… american e… acti… angu… angui… angu… rostra… telemetry      16   
##  2 rive… blacktail … acti… cypr… catos… moxo… poecil… mark-recapture <NA> 
##  3 rive… central st… acti… cypr… cypri… camp… anomal… mark-recapture 20   
##  4 rive… rosyside d… acti… cypr… cypri… clin… fundul… mark-recapture 26   
##  5 rive… longnose d… acti… cypr… cypri… rhin… catara… mark-recapture 17   
##  6 rive… muskellunge acti… esoc… esoci… esox  masqui… telemetry      5    
##  7 mari… pollack     acti… gadi… gadid… poll… pollac… telemetry      2    
##  8 mari… saithe      acti… gadi… gadid… poll… virens  telemetry      2    
##  9 mari… giant trev… acti… perc… caran… cara… ignobi… telemetry      4    
## 10 lake… rock bass   acti… perc… centr… ambl… rupest… mark-recapture 16   
## # … with 332 more rows, and 15 more variables: mean_mass_g <dbl>,
## #   log10_mass <dbl>, alternative_mass_reference <chr>, mean_hra_m2 <dbl>,
## #   log10.hra <dbl>, hra_reference <chr>, realm <chr>, thermoregulation <chr>,
## #   locomotion <chr>, trophic_guild <fct>, dimension <chr>, prey_mass <dbl>,
## #   log10_prey_mass <dbl>, PPMR <dbl>, prey_size_reference <chr>
```

```r
herbivores <- data_frame(filter(homerange, trophic_guild =="herbivore"))
herbivores
```

```
## # A tibble: 227 x 24
##    taxon common_name class order family genus species primary_method N    
##    <fct> <chr>       <chr> <fct> <chr>  <chr> <chr>   <chr>          <chr>
##  1 mari… lined surg… acti… perc… acant… acan… lineat… direct observ… <NA> 
##  2 mari… orangespin… acti… perc… acant… naso  litura… telemetry      8    
##  3 mari… bluespine … acti… perc… acant… naso  unicor… telemetry      7    
##  4 mari… redlip ble… acti… perc… blenn… ophi… atlant… direct observ… 20   
##  5 mari… bermuda ch… acti… perc… kypho… kyph… sectat… telemetry      11   
##  6 mari… cherubfish  acti… perc… pomac… cent… argi    direct observ… <NA> 
##  7 mari… damselfish  acti… perc… pomac… chro… chromis direct observ… <NA> 
##  8 mari… twinspot d… acti… perc… pomac… chry… biocel… direct observ… 18   
##  9 mari… wards dams… acti… perc… pomac… poma… wardi   direct observ… <NA> 
## 10 mari… australian… acti… perc… pomac… steg… apical… direct observ… <NA> 
## # … with 217 more rows, and 15 more variables: mean_mass_g <dbl>,
## #   log10_mass <dbl>, alternative_mass_reference <chr>, mean_hra_m2 <dbl>,
## #   log10.hra <dbl>, hra_reference <chr>, realm <chr>, thermoregulation <chr>,
## #   locomotion <chr>, trophic_guild <fct>, dimension <chr>, prey_mass <dbl>,
## #   log10_prey_mass <dbl>, PPMR <dbl>, prey_size_reference <chr>
```
…
