…
```
## `summarise()` regrouping output by 'continent', 'year' (override with `.groups` argument)
```

```r
gapminder_3
```

```
## # A tibble: 1,704 x 6
## # Groups:   continent, year [60]
##    continent  year lifeExp min_lifeExp max_lifeExp mean_lifeExp
##    <fct>     <int>   <dbl>       <dbl>       <dbl>        <dbl>
##  1 Africa     1952    43.1          30        52.7         39.1
##  2 Africa     1952    30.0          30        52.7         39.1
##  3 Africa     1952    38.2          30        52.7         39.1
##  4 Africa     1952    47.6          30        52.7         39.1
##  5 Africa     1952    32.0          30        52.7         39.1
##  6 Africa     1952    39.0          30        52.7         39.1
##  7 Africa     1952    38.5          30        52.7         39.1
##  8 Africa     1952    35.5          30        52.7         39.1
##  9 Africa     1952    38.1          30        52.7         39.1
## 10 Africa     1952    40.7          30        52.7         39.1
## # … with 1,694 more rows
```
…
**7. Which countries have had the largest population growth since 1952?**
Note: GDP numbers are included in these dataframes for use in the next problem


```r
gapminder_2007 <- gapminder %>% 
  filter(year == 2007) %>% 
  select(country, pop, gdpPercap) %>% 
  rename(country_2007 = "country", pop_2007 = "pop", gdpPercap2007 = "gdpPercap")
gapminder_2007
```

```
## # A tibble: 142 x 3
##    country_2007  pop_2007 gdpPercap2007
##    <fct>            <int>         <dbl>
##  1 Afghanistan   31889923          975.
##  2 Albania        3600523         5937.
##  3 Algeria       33333216         6223.
##  4 Angola        12420476         4797.
##  5 Argentina     40301927        12779.
##  6 Australia     20434176        34435.
##  7 Austria        8199783        36126.
##  8 Bahrain         708573        29796.
##  9 Bangladesh   150448339         1391.
## 10 Belgium       10392226        33693.
## # … with 132 more rows
```


```r
gapminder_1952 <-
  gapminder %>% 
  filter (year == 1952) %>% 
  select(country, pop, gdpPercap) %>% 
  rename(pop_1952 = "pop", gdpPercap_1952 = "gdpPercap")
gapminder_1952
```

```
## # A tibble: 142 x 3
##    country     pop_1952 gdpPercap_1952
##    <fct>          <int>          <dbl>
##  1 Afghanistan  8425333           779.
##  2 Albania      1282697          1601.
##  3 Algeria      9279525          2449.
##  4 Angola       4232095          3521.
##  5 Argentina   17876956          5911.
##  6 Australia    8691212         10040.
##  7 Austria      6927772          6137.
##  8 Bahrain       120447          9867.
##  9 Bangladesh  46886859           684.
## 10 Belgium      8730405          8343.
## # … with 132 more rows
```
…
```r
gapminder_growth2 <- gapminder_growth %>% 
  rename(pop_2007 = "gapminder_2007$pop_2007", gdpPercap2007 = "gapminder_2007$gdpPercap2007") %>% 
  mutate(pop_growth = (pop_2007- pop_1952), gdp_growth = (gdpPercap2007 - gdpPercap_1952)) %>% 
  select(country, pop_growth, gdp_growth) %>% 
  arrange(desc(pop_growth))
gapminder_growth2
```

```
## # A tibble: 142 x 3
##    country       pop_growth gdp_growth
##    <fct>              <int>      <dbl>
##  1 China          762419569      4559.
##  2 India          738396331      1906.
##  3 United States  143586947     28961.
##  4 Indonesia      141495000      2791.
##  5 Brazil         133408087      6957.
##  6 Pakistan       127924057      1921.
##  7 Bangladesh     103561480       707.
##  8 Nigeria        101912068       937.
##  9 Mexico          78556574      8499.
## 10 Philippines     68638596      1918.
## # … with 132 more rows
```
…
