…
```r
deserts %>% 
  select(species, weight, hindfoot_length) %>% 
  group_by(species) %>% 
  summarize(mean_weight = mean(weight, na.rm = T)) %>% 
  arrange(desc(mean_weight))
```

```
## `summarise()` ungrouping output (override with `.groups` argument)
```

```
## # A tibble: 40 x 2
##    species      mean_weight
##    <chr>              <dbl>
##  1 albigula           159. 
##  2 spectabilis        120. 
##  3 spilosoma           93.5
##  4 hispidus            65.6
##  5 fulviventer         58.9
##  6 ochrognathus        55.4
##  7 ordii               48.9
##  8 merriami            43.2
##  9 baileyi             31.7
## 10 leucogaster         31.6
## # … with 30 more rows
```


```r
deserts_heavy <- deserts %>% 
  filter(species == "albigula" | species == "spectabilis") %>% 
  filter(!is.na(weight)) %>% 
  filter(!is.na(hindfoot_length)) %>% 
  filter(!is.na(sex)) %>% 
  mutate(weight_to_hindfoot_length_ratio = weight/hindfoot_length)
deserts_heavy
```

```
## # A tibble: 3,068 x 14
##    record_id month   day  year plot_id species_id sex   hindfoot_length weight
##        <dbl> <dbl> <dbl> <dbl>   <dbl> <chr>      <chr>           <dbl>  <dbl>
##  1       357    11    12  1977       9 DS         F                  50    117
##  2       362    11    12  1977       1 DS         F                  51    121
##  3       367    11    12  1977      20 DS         M                  51    115
##  4       377    11    12  1977       9 DS         F                  48    120
##  5       381    11    13  1977      17 DS         F                  48    118
##  6       383    11    13  1977      11 DS         F                  52    126
##  7       385    11    13  1977      17 DS         M                  50    132
##  8       392    11    13  1977      11 DS         F                  53    122
##  9       394    11    13  1977       4 DS         F                  48    107
## 10       398    11    13  1977       4 DS         F                  50    115
## # … with 3,058 more rows, and 5 more variables: genus <chr>, species <chr>,
## #   taxa <chr>, plot_type <chr>, weight_to_hindfoot_length_ratio <dbl>
```
…
